<svg width="64" height="50" viewBox="0 0 64 50" fill="none" xmlns="http://www.w3.org/2000/svg">
<path d="M8.69905 5.65552C10.0701 5.65552 11.1841 6.76949 11.1841 8.14052V41.8166C11.1841 43.1877 10.0701 44.3016 8.69905 44.3016C7.32802 44.3016 6.21405 43.1877 6.21405 41.8166V8.14052C6.21405 6.76949 7.32802 5.65552 8.69905 5.65552Z" fill="white"/>
<path d="M16.0684 5.65552C16.9681 5.65552 17.7393 6.38388 17.7393 7.32647V42.6735C17.7393 43.5733 17.011 44.3445 16.0684 44.3445C15.1686 44.3445 14.3974 43.6161 14.3974 42.6735V7.32647C14.3974 6.42673 15.1258 5.65552 16.0684 5.65552Z" fill="white"/>
<path d="M21.3811 5.65552C21.8096 5.65552 22.1095 5.99828 22.1095 6.38388V43.5733C22.1095 44.0017 21.7667 44.3016 21.3811 44.3016C20.9527 44.3016 20.6528 43.9589 20.6528 43.5733V6.42673C20.6099 5.99828 20.9527 5.65552 21.3811 5.65552Z" fill="white"/>
<path d="M27.3366 5.65552C28.2792 5.65552 29.0504 6.42673 29.0504 7.36931V36.0754C29.0504 37.018 28.2792 37.7892 27.3366 37.7892C26.394 37.7892 25.6228 37.018 25.6228 36.0754V7.36931C25.6228 6.42673 26.394 5.65552 27.3366 5.65552Z" fill="white"/>
<path d="M33.4206 5.65552C34.1061 5.65552 34.6202 6.2125 34.6202 6.85517V43.102C34.6202 43.7875 34.0632 44.3016 33.4206 44.3016C32.7779 44.3016 32.2209 43.7446 32.2209 43.102V6.89802C32.2209 6.2125 32.7779 5.65552 33.4206 5.65552Z" fill="white"/>
<path d="M39.5046 5.65552C40.2758 5.65552 40.8756 6.25535 40.8756 7.02655V38.1748C40.8756 38.946 40.2758 39.5458 39.5046 39.5458C38.7333 39.5458 38.1335 38.946 38.1335 38.1748V7.02655C38.1335 6.25535 38.7762 5.65552 39.5046 5.65552Z" fill="white"/>
<path d="M46.1027 5.65552C47.0024 5.65552 47.7308 6.38388 47.7308 7.28362V41.1311C47.7308 42.0308 47.0024 42.7592 46.1027 42.7592C45.2029 42.7592 44.4745 42.0308 44.4745 41.1311V7.28362C44.4745 6.38388 45.2029 5.65552 46.1027 5.65552Z" fill="white"/>
<path d="M54.7573 5.65552C56.1284 5.65552 57.2423 6.76949 57.2423 8.14052V41.8166C57.2423 43.1877 56.1284 44.3016 54.7573 44.3016C53.3863 44.3016 52.2723 43.1877 52.2723 41.8166V8.14052C52.2723 6.76949 53.3863 5.65552 54.7573 5.65552Z" fill="white"/>
<path d="M27.3366 39.3316C28.2792 39.3316 29.0504 40.1028 29.0504 41.0454C29.0504 41.988 28.2792 42.7592 27.3366 42.7592C26.394 42.7592 25.6228 41.988 25.6228 41.0454C25.58 40.1028 26.3512 39.3316 27.3366 39.3316Z" fill="white"/>
<path d="M39.5045 40.5313C40.1472 40.5313 40.6614 41.0454 40.6614 41.6881C40.6614 42.3308 40.1472 42.8449 39.5045 42.8449C38.8619 42.8449 38.3477 42.3308 38.3477 41.6881C38.3477 41.0883 38.8619 40.5313 39.5045 40.5313Z" fill="white"/>
<path d="M1.92956 0C4.28603 0 6.68534 0 9.04181 0C9.94156 0 10.6271 0.728363 10.6271 1.58526C10.6271 2.485 9.89871 3.17052 9.04181 3.17052C7.07095 3.17052 5.14293 3.17052 3.17206 3.17052C3.17206 5.14139 3.17206 7.11225 3.17206 9.12596C3.17206 10.0257 2.4437 10.7112 1.5868 10.7112C0.687057 10.7112 0.00153896 9.98286 0.00153896 9.12596C0.00153896 6.72665 0.00153896 4.32734 0.00153896 1.92802C-0.0413059 0.856898 0.815592 0 1.92956 0Z" fill="white"/>
<path d="M61.5697 0C59.2132 0 56.8139 0 54.4574 0C53.5577 0 52.8721 0.728363 52.8721 1.58526C52.8721 2.485 53.6005 3.17052 54.4574 3.17052C56.4283 3.17052 58.3563 3.17052 60.3272 3.17052C60.3272 5.14139 60.3272 7.11225 60.3272 9.12596C60.3272 10.0257 61.0555 10.7112 61.9124 10.7112C62.8122 10.7112 63.4977 9.98286 63.4977 9.12596C63.4977 6.72665 63.4977 4.32734 63.4977 1.92802C63.5405 0.856898 62.6408 0 61.5697 0Z" fill="white"/>
<path d="M1.92956 50C4.28603 50 6.68534 50 9.04181 50C9.94156 50 10.6271 49.2716 10.6271 48.4147C10.6271 47.515 9.89871 46.8295 9.04181 46.8295C7.07095 46.8295 5.14293 46.8295 3.17206 46.8295C3.17206 44.8586 3.17206 42.8877 3.17206 40.874C3.17206 39.9743 2.4437 39.2888 1.5868 39.2888C0.687057 39.2888 0.00153896 40.0171 0.00153896 40.874C0.00153896 43.2733 0.00153896 45.6726 0.00153896 48.072C-0.0413059 49.1431 0.815592 50 1.92956 50Z" fill="white"/>
<path d="M61.5697 50C59.2132 50 56.8139 50 54.4574 50C53.5577 50 52.8721 49.2716 52.8721 48.4147C52.8721 47.515 53.6005 46.8295 54.4574 46.8295C56.4283 46.8295 58.3563 46.8295 60.3272 46.8295C60.3272 44.8586 60.3272 42.8877 60.3272 40.874C60.3272 39.9743 61.0555 39.2888 61.9124 39.2888C62.8122 39.2888 63.4977 40.0171 63.4977 40.874C63.4977 43.2733 63.4977 45.6726 63.4977 48.072C63.5405 49.1431 62.6408 50 61.5697 50Z" fill="white"/>
</svg>
