<svg width="52" height="50" viewBox="0 0 52 50" fill="none" xmlns="http://www.w3.org/2000/svg">
<g clip-path="url(#clip0)">
<path d="M7.2104 31.5603C8.09693 32.4468 9.51537 32.5059 10.461 31.6785L21.3948 21.8676C22.3995 20.9811 22.4586 19.5036 21.5721 18.4988C20.6856 17.4941 19.208 17.435 18.2033 18.3215L8.98345 26.5958L4.01891 21.6903C3.07329 20.7447 1.59575 20.7447 0.650119 21.6903C-0.295508 22.6359 -0.295508 24.1135 0.650119 25.0591L7.2104 31.5603Z" fill="white"/>
<path d="M49.2908 22.5768H27.6005C26.3002 22.5768 25.2364 23.6407 25.2364 24.9409C25.2364 26.2411 26.3002 27.305 27.6005 27.305H49.2908C50.591 27.305 51.6549 26.2411 51.6549 24.9409C51.6549 23.6407 50.591 22.5768 49.2908 22.5768Z" fill="white"/>
<path d="M7.2104 49.2908C8.09693 50.1773 9.51537 50.2364 10.461 49.409L21.3948 39.5981C22.3995 38.7116 22.4586 37.2341 21.5721 36.2293C20.6856 35.2246 19.208 35.1655 18.2033 36.052L8.98345 44.3263L4.01891 39.4208C3.07329 38.4752 1.59575 38.4752 0.650119 39.4208C-0.295508 40.3664 -0.295508 41.844 0.650119 42.7896L7.2104 49.2908Z" fill="white"/>
<path d="M49.2908 40.3073H27.6005C26.3002 40.3073 25.2364 41.3711 25.2364 42.6714C25.2364 43.9716 26.3002 45.0354 27.6005 45.0354H49.2908C50.591 45.0354 51.6549 43.9716 51.6549 42.6714C51.6549 41.3711 50.591 40.3073 49.2908 40.3073Z" fill="white"/>
<path d="M7.2104 13.8298C8.09693 14.7163 9.51537 14.7754 10.461 13.948L21.3948 4.13712C22.3995 3.25059 22.4586 1.77305 21.5721 0.768325C20.6856 -0.236404 19.208 -0.295505 18.2033 0.59102L8.98345 8.86525L4.01891 3.95981C3.07329 3.01419 1.59575 3.01419 0.650119 3.95981C-0.295508 4.90544 -0.295508 6.38298 0.650119 7.32861L7.2104 13.8298Z" fill="white"/>
<path d="M49.2908 4.84634H27.6005C26.3002 4.84634 25.2364 5.91017 25.2364 7.21041C25.2364 8.51065 26.3002 9.57448 27.6005 9.57448H49.2908C50.591 9.57448 51.6549 8.51065 51.6549 7.21041C51.6549 5.91017 50.591 4.84634 49.2908 4.84634Z" fill="white"/>
</g>
<defs>
<clipPath id="clip0">
<rect width="51.6549" height="50" fill="white"/>
</clipPath>
</defs>
</svg>
